{
    "docs": [
      {
        "id": 749374,
        "name": "Атака титанов",
        "alternativeName": "Shingeki no kyojin",
        "enName": "",
        "type": "anime",
        "year": 2013,
        "description": "Уже многие годы человечество ведёт борьбу с титанами — огромными существами, которые не обладают особым интеллектом, зато едят людей и получают от этого удовольствие. После продолжительной борьбы остатки человечества построили высокую стену, окружившую страну людей, через которую титаны пройти не могли. С тех пор прошло сто лет, люди мирно живут под защитой стены. Но однажды подростки Эрен и Микаса становятся свидетелями страшного события — участок стены разрушается супертитаном, появившимся прямо из воздуха. Титаны нападают на город, и дети в ужасе видят, как один из монстров заживо съедает мать Эрена. Мальчик клянётся, что убьёт всех титанов и отомстит за человечество.",
        "shortDescription": "Люди сражаются с титанами, которые мечтают их съесть. Финал самого эпичного аниме современности",
        "movieLength": 0,
        "isSeries": true,
        "ticketsOnSale": false,
        "totalSeriesLength": null,
        "seriesLength": 24,
        "ratingMpaa": null,
        "ageRating": 18,
        "top10": null,
        "top250": null,
        "typeNumber": 4,
        "status": "completed",
        "names": [],
        "externalId": {
          "kpHD": "4e408995ea402cafb36eaab1d1b9ba0a",
          "imdb": null,
          "tmdb": 1429
        },
        "logo": {
          "url": null,
          "previewUrl": null
        },
        "poster": {
          "url": "https://image.openmoviedb.com/kinopoisk-images/6201401/e42e60bc-0772-4a3a-a24f-4218febf9386/orig",
          "previewUrl": "https://image.openmoviedb.com/kinopoisk-images/6201401/e42e60bc-0772-4a3a-a24f-4218febf9386/x1000"
        },
        "backdrop": {
          "url": "https://image.openmoviedb.com/kinopoisk-ott-images/212840/2a00000186a8b7a1951185c6175ed0f07fd0/orig",
          "previewUrl": "https://image.openmoviedb.com/kinopoisk-ott-images/212840/2a00000186a8b7a1951185c6175ed0f07fd0/x1000"
        },
        "rating": {
          "kp": 8.726,
          "imdb": 9.1,
          "filmCritics": 0,
          "russianFilmCritics": 85.7143,
          "await": null
        },
        "votes": {
          "kp": 798229,
          "imdb": 600936,
          "filmCritics": 0,
          "russianFilmCritics": 7,
          "await": 0
        },
        "genres": [
          {
            "name": "аниме"
          },
          {
            "name": "мультфильм"
          },
          {
            "name": "фантастика"
          },
          {
            "name": "драма"
          },
          {
            "name": "боевик"
          },
          {
            "name": "фэнтези"
          }
        ],
        "countries": [
          {
            "name": "Япония"
          }
        ],
        "releaseYears": [
          {
            "start": 2013,
            "end": 2023
          }
        ]
      },
      {
        "id": 1048242,
        "name": "Атака титанов",
        "alternativeName": "Attack on Titan",
        "enName": "",
        "type": "movie",
        "year": 0,
        "description": "",
        "shortDescription": "",
        "movieLength": 0,
        "isSeries": false,
        "ticketsOnSale": false,
        "totalSeriesLength": null,
        "seriesLength": null,
        "ratingMpaa": null,
        "ageRating": null,
        "top10": null,
        "top250": null,
        "typeNumber": 1,
        "status": null,
        "names": [
          {
            "name": "Атака титанов",
            "language": "RU",
            "type": "Russian title on kinopoisk"
          },
          {
            "name": "Attack on Titan",
            "language": null,
            "type": "Original title on kinopoisk"
          }
        ],
        "externalId": {
          "kpHD": null
        },
        "logo": null,
        "poster": {
          "url": null,
          "previewUrl": null
        },
        "backdrop": {
          "url": null,
          "previewUrl": null
        },
        "rating": {
          "kp": 0,
          "imdb": 0,
          "filmCritics": 0,
          "russianFilmCritics": 0,
          "await": 0
        },
        "votes": {
          "kp": 0,
          "imdb": 0,
          "filmCritics": 0,
          "russianFilmCritics": 0,
          "await": 6068
        },
        "genres": [
          {
            "name": "фантастика"
          },
          {
            "name": "фэнтези"
          },
          {
            "name": "боевик"
          },
          {
            "name": "драма"
          }
        ],
        "countries": [
          {
            "name": "США"
          }
        ],
        "releaseYears": []
      },
      {
        "id": 1162606,
        "name": "Атака титанов: Выбор без сожалений",
        "alternativeName": "Shingeki no Kyojin: Kuinaki Sentaku",
        "enName": "",
        "type": "anime",
        "year": 2014,
        "description": "В подземном городе, где люди рождаются, живут и умирают, ни разу не увидев солнечного света, действует банда под руководством Леви Аккермана. Прохвостам удалось раздобыть устройства для пространственных манёвров и научиться умело ими пользоваться, чтобы шустро уходить от преследований. Однажды богатый и влиятельный человек предлагает банде Леви сделку — в обмен на гражданство на поверхности они должны провернуть одно грязное дело.",
        "shortDescription": "Шайка юного Леви идет на дело, которое изменит их жизнь. Предыстория самого популярного героя «Атаки титанов»",
        "movieLength": 0,
        "isSeries": true,
        "ticketsOnSale": false,
        "totalSeriesLength": null,
        "seriesLength": 25,
        "ratingMpaa": null,
        "ageRating": 18,
        "top10": null,
        "top250": 88,
        "typeNumber": 4,
        "status": "completed",
        "names": [
          {
            "name": "Атака титанов: Выбор без сожалений",
            "language": "RU",
            "type": "Russian title on kinopoisk"
          },
          {
            "name": "Shingeki no Kyojin: Kuinaki Sentaku",
            "language": null,
            "type": "Original title on kinopoisk"
          }
        ],
        "externalId": {
          "kpHD": "4206cc713e9df10286cc2227b9246ea2",
          "tmdb": 1429
        },
        "logo": null,
        "poster": {
          "url": "https://image.openmoviedb.com/kinopoisk-images/6201401/94a90a85-97ab-4d12-bd23-bb4bbec26a73/orig",
          "previewUrl": "https://image.openmoviedb.com/kinopoisk-images/6201401/94a90a85-97ab-4d12-bd23-bb4bbec26a73/x1000"
        },
        "backdrop": {
          "url": "https://image.openmoviedb.com/kinopoisk-ott-images/1672343/2a0000017ea291c88606f12633fdf5619f1c/orig",
          "previewUrl": "https://image.openmoviedb.com/kinopoisk-ott-images/1672343/2a0000017ea291c88606f12633fdf5619f1c/x1000"
        },
        "rating": {
          "kp": 8.628,
          "imdb": 0,
          "filmCritics": 0,
          "russianFilmCritics": 0,
          "await": null
        },
        "votes": {
          "kp": 110023,
          "imdb": 0,
          "filmCritics": 0,
          "russianFilmCritics": 0,
          "await": 0
        },
        "genres": [
          {
            "name": "аниме"
          },
          {
            "name": "мультфильм"
          },
          {
            "name": "боевик"
          },
          {
            "name": "фантастика"
          },
          {
            "name": "фэнтези"
          }
        ],
        "countries": [
          {
            "name": "Япония"
          }
        ],
        "releaseYears": [
          {
            "start": 2014,
            "end": 2014
          }
        ]
      },
      {
        "id": 1169265,
        "name": "Атака титанов OVA",
        "alternativeName": "Shingeki no Kyojin OVA",
        "enName": "",
        "type": "anime",
        "year": 2013,
        "description": "Разведкорпус под командованием Эрвина Смита отправляется за пределы стен. Безуспешно пытаясь приманить титана, Хандзи обнаруживает в дупле дерева обезглавленное тело, а рядом и дневник за авторством участницы 34-й экспедиции Илзе Лангнар.",
        "shortDescription": "Разведчики отправляются за стену, чтобы узнать секреты титанов. Три истории про героев культового аниме",
        "movieLength": 0,
        "isSeries": true,
        "ticketsOnSale": false,
        "totalSeriesLength": null,
        "seriesLength": 23,
        "ratingMpaa": null,
        "ageRating": 18,
        "top10": null,
        "top250": null,
        "typeNumber": 4,
        "status": "completed",
        "names": [
          {
            "name": "Атака титанов OVA",
            "language": "RU",
            "type": "Russian title on kinopoisk"
          },
          {
            "name": "Shingeki no Kyojin OVA",
            "language": null,
            "type": "Original title on kinopoisk"
          }
        ],
        "externalId": {
          "kpHD": "4c79665ae1ddfca489416ec773e27b96"
        },
        "logo": null,
        "poster": {
          "url": "https://image.openmoviedb.com/kinopoisk-images/4303601/b61515bb-4c34-4219-a49f-79af29501f3e/orig",
          "previewUrl": "https://image.openmoviedb.com/kinopoisk-images/4303601/b61515bb-4c34-4219-a49f-79af29501f3e/x1000"
        },
        "backdrop": {
          "url": "https://image.openmoviedb.com/kinopoisk-ott-images/2419418/2a0000017ea2938ecd1f3ae4a92894ad3eb1/orig",
          "previewUrl": "https://image.openmoviedb.com/kinopoisk-ott-images/2419418/2a0000017ea2938ecd1f3ae4a92894ad3eb1/x1000"
        },
        "rating": {
          "kp": 7.913,
          "imdb": 0,
          "filmCritics": 0,
          "russianFilmCritics": 0,
          "await": null
        },
        "votes": {
          "kp": 76720,
          "imdb": 0,
          "filmCritics": 0,
          "russianFilmCritics": 0,
          "await": 0
        },
        "genres": [
          {
            "name": "аниме"
          },
          {
            "name": "мультфильм"
          },
          {
            "name": "боевик"
          },
          {
            "name": "фантастика"
          },
          {
            "name": "фэнтези"
          }
        ],
        "countries": [
          {
            "name": "Япония"
          }
        ],
        "releaseYears": [
          {
            "start": 2013,
            "end": 2013
          }
        ]
      },
      {
        "id": 5416975,
        "name": "Атака Титанов: Финал. Расширенная версия",
        "alternativeName": "Shingeki no Kyojin: The Final Season - Kanketsu-hen",
        "enName": "",
        "type": "anime",
        "year": 2023,
        "description": "После катастрофических действий Эрена его друзья и бывшие враги объединяются против него. Армин, Микаса и оставшиеся в живых солдаты разведкорпуса формируют временный союз с Райнером Брауном и остатками марлийской армии, чтобы остановить Эрена. Противостояние людей и титанов достигает апогея.",
        "shortDescription": "Противостояние людей и кровожадных великанов достигает апогея. Развязка эпичной аниме-саги — с новыми сценами!",
        "movieLength": 0,
        "isSeries": true,
        "ticketsOnSale": false,
        "totalSeriesLength": 161,
        "seriesLength": 23,
        "ratingMpaa": null,
        "ageRating": 18,
        "top10": null,
        "top250": null,
        "typeNumber": 4,
        "status": "completed",
        "names": [
          {
            "name": "Атака Титанов: Финал. Расширенная версия",
            "language": "RU",
            "type": "Russian title on kinopoisk"
          },
          {
            "name": "Shingeki no Kyojin: The Final Season - Kanketsu-hen",
            "language": null,
            "type": "Original title on kinopoisk"
          }
        ],
        "externalId": {
          "kpHD": "d73c2a0113d94c7a8581b3ca6b1b60f5"
        },
        "logo": null,
        "poster": {
          "url": "https://image.openmoviedb.com/kinopoisk-images/10812607/ba203cdf-3886-4b50-a73a-563bc177fe50/orig",
          "previewUrl": "https://image.openmoviedb.com/kinopoisk-images/10812607/ba203cdf-3886-4b50-a73a-563bc177fe50/x1000"
        },
        "backdrop": {
          "url": "https://image.openmoviedb.com/kinopoisk-ott-images/212840/2a00000186a8b7a1951185c6175ed0f07fd0/orig",
          "previewUrl": "https://image.openmoviedb.com/kinopoisk-ott-images/212840/2a00000186a8b7a1951185c6175ed0f07fd0/x1000"
        },
        "rating": {
          "kp": 9.092,
          "imdb": 9.2,
          "filmCritics": 0,
          "russianFilmCritics": 0,
          "await": null
        },
        "votes": {
          "kp": 53541,
          "imdb": 785,
          "filmCritics": 0,
          "russianFilmCritics": 0,
          "await": 0
        },
        "genres": [
          {
            "name": "аниме"
          },
          {
            "name": "мультфильм"
          },
          {
            "name": "фантастика"
          },
          {
            "name": "драма"
          },
          {
            "name": "боевик"
          },
          {
            "name": "фэнтези"
          }
        ],
        "countries": [
          {
            "name": "Япония"
          }
        ],
        "releaseYears": [
          {
            "start": 2023,
            "end": 2023
          }
        ]
      },
      {
        "id": 1142541,
        "name": "Атака титанов: Потерянные девушки",
        "alternativeName": "Shingeki no Kyojin: Lost Girls",
        "enName": "",
        "type": "anime",
        "year": 2017,
        "description": "Незадолго до 57-й вылазки за стены сотрудница милиции Энни Лайонхарт берётся найти пропавшую дочь богатого человека.",
        "shortDescription": "Энни расследует похищение, а Микаса воображает мир без титанов. Возвращение во вселенную любимого аниме",
        "movieLength": 0,
        "isSeries": true,
        "ticketsOnSale": false,
        "totalSeriesLength": null,
        "seriesLength": 25,
        "ratingMpaa": null,
        "ageRating": 18,
        "top10": null,
        "top250": null,
        "typeNumber": 4,
        "status": "completed",
        "names": [
          {
            "name": "Атака титанов: Потерянные девушки",
            "language": "RU",
            "type": "Russian title on kinopoisk"
          },
          {
            "name": "Shingeki no Kyojin: Lost Girls",
            "language": null,
            "type": "Original title on kinopoisk"
          }
        ],
        "externalId": {
          "kpHD": "4602bfcdfe64c64fae7d955e5a5b4902",
          "tmdb": 1429
        },
        "logo": null,
        "poster": {
          "url": "https://image.openmoviedb.com/kinopoisk-images/4303601/040c1d3e-d04f-4053-82ed-44dfa3d8f244/orig",
          "previewUrl": "https://image.openmoviedb.com/kinopoisk-images/4303601/040c1d3e-d04f-4053-82ed-44dfa3d8f244/x1000"
        },
        "backdrop": {
          "url": "https://image.openmoviedb.com/kinopoisk-ott-images/1531675/2a0000017ea295366bbb208b46acca9595f5/orig",
          "previewUrl": "https://image.openmoviedb.com/kinopoisk-ott-images/1531675/2a0000017ea295366bbb208b46acca9595f5/x1000"
        },
        "rating": {
          "kp": 8.201,
          "imdb": 0,
          "filmCritics": 0,
          "russianFilmCritics": 0,
          "await": null
        },
        "votes": {
          "kp": 45466,
          "imdb": 0,
          "filmCritics": 0,
          "russianFilmCritics": 0,
          "await": 0
        },
        "genres": [
          {
            "name": "аниме"
          },
          {
            "name": "мультфильм"
          },
          {
            "name": "детектив"
          },
          {
            "name": "драма"
          },
          {
            "name": "фантастика"
          },
          {
            "name": "фэнтези"
          }
        ],
        "countries": [
          {
            "name": "Япония"
          }
        ],
        "releaseYears": [
          {
            "start": 2017,
            "end": 2017
          }
        ]
      },
      {
        "id": 6402838,
        "name": "Атака Титанов: Последняя атака",
        "alternativeName": "Shingeki no Kyojin Movie: Kanketsu-hen - The Last Attack",
        "enName": "",
        "type": "anime",
        "year": 2024,
        "description": "После катастрофических действий Эрена его друзья и бывшие враги объединяются против него. Армин, Микаса и оставшиеся в живых солдаты разведкорпуса формируют временный союз с Райнером Брауном и остатками марлийской армии. Противостояние людей и титанов достигает апогея.",
        "shortDescription": "Армия титанов восстает против людей. Развязка культового аниме — с улучшенной графикой и сценой после титров",
        "movieLength": 145,
        "isSeries": false,
        "ticketsOnSale": false,
        "totalSeriesLength": null,
        "seriesLength": null,
        "ratingMpaa": null,
        "ageRating": 18,
        "top10": null,
        "top250": 78,
        "typeNumber": 4,
        "status": null,
        "names": [],
        "externalId": {
          "kpHD": "1d0ff4ecc88947ddb8ca29fab72ef536"
        },
        "logo": null,
        "poster": {
          "url": "https://image.openmoviedb.com/kinopoisk-images/10768063/6ec748c3-0208-4427-ad0f-15ca863476eb/orig",
          "previewUrl": "https://image.openmoviedb.com/kinopoisk-images/10768063/6ec748c3-0208-4427-ad0f-15ca863476eb/x1000"
        },
        "backdrop": {
          "previewUrl": "https://image.openmoviedb.com/kinopoisk-ott-images/12808873/2a000001930b1b312e8212e1623c4df59de5/x1000",
          "url": "https://image.openmoviedb.com/kinopoisk-ott-images/12808873/2a000001930b1b312e8212e1623c4df59de5/orig"
        },
        "rating": {
          "kp": 8.858,
          "imdb": 9.2,
          "filmCritics": 0,
          "russianFilmCritics": 0,
          "await": null
        },
        "votes": {
          "kp": 39168,
          "imdb": 15088,
          "filmCritics": 0,
          "russianFilmCritics": 0,
          "await": 0
        },
        "genres": [
          {
            "name": "аниме"
          },
          {
            "name": "мультфильм"
          },
          {
            "name": "фантастика"
          },
          {
            "name": "драма"
          },
          {
            "name": "боевик"
          },
          {
            "name": "фэнтези"
          }
        ],
        "countries": [
          {
            "name": "Япония"
          }
        ],
        "releaseYears": []
      }
    ],
    "total": 319,
    "limit": 7,
    "page": 1,
    "pages": 46
  }